<?xml version="1.0" encoding="utf-8"?>
<!-- Pendulum on a cart, in 2D plane -->
<robot name="cartpole">

    <!--
        Material colors
    -->

    <!-- Basic colors -->
    <material name="black">
        <color rgba="0.0 0.0 0.0 1.0"/>
    </material>
    <material name="blue">
        <color rgba="0.0 0.0 0.8 1.0"/>
    </material>
    <material name="green">
        <color rgba="0.0 0.8 0.0 1.0"/>
    </material>
    <material name="grey">
        <color rgba="0.2 0.2 0.2 1.0"/>
    </material>
    <material name="light_grey">
        <color rgba="0.4 0.4 0.4 1.0"/>
    </material>
    <material name="red">
        <color rgba="0.8 0.0 0.0 1.0"/>
    </material>
    <material name="white">
        <color rgba="1.0 1.0 1.0 1.0"/>
    </material>

    <!--
        World
    -->

    <link name="world"/>

    <!--
        Base (fixed to world)
    -->

    <joint name="base_joint" type="fixed">
        <parent link="world"/>
        <child link="base"/>
        <origin xyz="0.0 0.0 1.0"/>
    </joint>

    <link name="base"/>

    <!--
        Cart (2D movement w.r.t. world)
    -->

    <joint name="cart_joint" type="prismatic">
        <parent link="base"/>
        <child link="cart"/>
        <axis xyz="1 0 0"/>
        <limit effort="1000"/>
    </joint>

    <link name="cart">
        <visual>
            <geometry>
                <box size="0.4 0.4 0.2"/>
            </geometry>
            <material name="grey"/>
        </visual>
        <inertial>
            <mass value="10.0"/>
            <inertia ixx="0.27" ixy="0.0" ixz="0.0" iyy="0.27" iyz="0.0" izz="0.27"/>
        </inertial>
        <collision>
            <geometry>
                <box size="0.4 0.4 0.2"/>
            </geometry>
        </collision>
    </link>

    <!--
        Pole
    -->

    <joint name="pole_joint" type="revolute">
        <parent link="cart"/>
        <child link="pole"/>
        <axis xyz="0 1 0"/>
        <origin xyz="0 0 -0.1"/>
    </joint>

    <link name="pole">
        <visual>
            <origin rpy="0 0 0" xyz="0 0 -0.25"/>
            <geometry>
                <box size="0.1 0.1 0.5"/>
            </geometry>
            <material name="grey"/>
        </visual>
        <inertial>
            <origin rpy="0 0 0" xyz="0 0 -0.25"/>
            <mass value="10.0"/>
            <inertia ixx="0.8" ixy="0.0" ixz="0.0" iyy="0.8" iyz="0.0" izz="0.05"/>
        </inertial>
        <collision>
            <origin rpy="0 0 0" xyz="0 0 -0.25"/>
            <geometry>
                <box size="0.1 0.1 0.5"/>
            </geometry>
        </collision>
    </link>

    <!--
      End-effector
    -->

    <joint name="ee_joint" type="fixed">
        <parent link="pole"/>
        <child link="ee"/>
        <origin xyz="0.0 0.0 -0.5"/>
    </joint>

    <link name="ee"/>

</robot>
